{
    "id" : "номер сообщения",
    "name{?}" : "имя ЛН",
    "subject" : "тема сообщения",
    "body" : "текст сообщения",
    "priority" : "{news-priority}",
    "privateMessage": true,
    "tags" : ["тег"],
    "created" : "{date}",
    "liveUntil{?}" : "{date}",
    "votesPro{?}" : 2,
    "votesContra{?}" : 3,
    "creator{?}" : "автор"
}